pipeline/ULA/simulation/qsim/Controlador.msim.vcd
$comment
	File created using the following command:
		vcd file Controlador.msim.vcd -direction
$end
$date
	Sat Jun 16 16:44:07 2018
$end
$version
	ModelSim Version 10.1d
$end
$timescale
	1ps
$end
$scope module Controlador_vlg_vec_tst $end
$var reg 6 ! OpCode [5:0] $end
$var wire 1 " ALUSrc [1] $end
$var wire 1 # ALUSrc [0] $end
$var wire 1 $ Branch [1] $end
$var wire 1 % Branch [0] $end
$var wire 1 & MemToReg [1] $end
$var wire 1 ' MemToReg [0] $end
$var wire 1 ( OpALU [2] $end
$var wire 1 ) OpALU [1] $end
$var wire 1 * OpALU [0] $end
$var wire 1 + ReadMem $end
$var wire 1 , RegDST [1] $end
$var wire 1 - RegDST [0] $end
$var wire 1 . RegWrite $end
$var wire 1 / WriteMem $end
$var wire 1 0 sampler $end
$scope module i1 $end
$var wire 1 1 gnd $end
$var wire 1 2 vcc $end
$var wire 1 3 unknown $end
$var tri1 1 4 devclrn $end
$var tri1 1 5 devpor $end
$var tri1 1 6 devoe $end
$var wire 1 7 inst43~0_combout $end
$var wire 1 8 inst43~1_combout $end
$var wire 1 9 inst43~2_combout $end
$var wire 1 : WriteMem_Sw~0_combout $end
$var wire 1 ; inst48~0_combout $end
$var wire 1 < WriteMem_Sw~combout $end
$var wire 1 = ALUSrc1Ori~0_combout $end
$var wire 1 > ALUSrc1Ori~combout $end
$var wire 1 ? inst98~0_combout $end
$var wire 1 @ inst98~1_combout $end
$var wire 1 A inst53~0_combout $end
$var wire 1 B inst55~0_combout $end
$var wire 1 C inst34~combout $end
$var wire 1 D inst~0_combout $end
$var wire 1 E inst56~2_combout $end
$var wire 1 F inst56~3_combout $end
$var wire 1 G inst57~3_combout $end
$var wire 1 H inst57~combout $end
$var wire 1 I Or3~2_combout $end
$var wire 1 J Or3~3_combout $end
$var wire 1 K MemToReg1Jal~combout $end
$var wire 1 L OpALU1TipoR~combout $end
$var wire 1 M OpCode~combout [5] $end
$var wire 1 N OpCode~combout [4] $end
$var wire 1 O OpCode~combout [3] $end
$var wire 1 P OpCode~combout [2] $end
$var wire 1 Q OpCode~combout [1] $end
$var wire 1 R OpCode~combout [0] $end
$upscope $end
$upscope $end
$enddefinitions $end
#0
$dumpvars
b0 !
0#
0"
0%
0$
0'
0&
0*
1)
0(
0+
1-
0,
1.
0/
x0
01
12
x3
14
15
16
07
08
19
0:
0;
0<
1=
0>
0?
0@
0A
0B
0C
0D
0E
0F
1G
1H
0I
0J
0K
1L
0R
0Q
0P
0O
0N
0M
$end
#20000
b1 !
1R
00
0L
1I
0G
1B
1A
09
1J
0H
0-
1%
1$
0.
1*
0)
#40000
b11 !
b10 !
0R
1Q
10
1L
0I
0B
0A
19
1?
0=
17
0J
0L
09
1-
0%
0$
1.
0*
0-
0.
#60000
b11 !
1R
00
1:
19
1K
1D
1C
1.
1,
1'
1&
#80000
b111 !
b101 !
b100 !
0R
0Q
1P
10
1I
0:
09
0?
1=
18
07
0K
0D
0C
1J
1B
0.
0,
0'
0&
1*
1%
#100000
b101 !
1R
00
0B
1A
0%
1$
#120000
b111 !
b110 !
0R
1Q
10
0I
1B
0A
0=
0J
0B
1%
0$
0*
0%
#140000
b111 !
1R
00
1:
#160000
b1111 !
b1011 !
b1001 !
b1000 !
0R
0Q
0P
1O
10
1E
1@
0:
19
1=
08
1F
1#
1.
1(
#180000
b1001 !
1R
00
0E
0@
09
0F
0#
0.
0(
#200000
b1011 !
b1010 !
0R
1Q
10
1@
19
1?
0=
17
0@
09
1#
1.
0#
0.
#220000
b1011 !
1R
00
1:
#240000
b1111 !
b1101 !
b1100 !
0R
0Q
1P
10
1I
1E
0:
0?
1=
18
07
1C
1;
1J
1F
0C
0;
1@
19
1&
1+
1*
1(
0&
0+
1#
1.
#260000
b1101 !
1R
00
0I
1G
0@
1>
0J
1H
0#
1"
0*
1)
#280000
b1111 !
b1110 !
0R
1Q
10
1I
1@
0>
0=
1J
1#
0"
1*
#300000
b1111 !
1R
00
0I
0G
0E
0@
1:
0J
0H
0F
1C
1;
0#
0*
0)
0(
1&
1+
#320000
b11111 !
b10111 !
b10011 !
b10001 !
b10000 !
0R
0Q
0P
0O
1N
10
1G
0:
09
1?
17
1K
1D
0;
0K
0D
0C
0.
1,
1'
0+
0,
0'
0&
#340000
b10001 !
1R
00
1I
0G
#360000
b10011 !
b10010 !
0R
1Q
10
0I
#380000
b10011 !
1R
00
#400000
b10111 !
b10101 !
b10100 !
0R
0Q
1P
10
1I
#420000
b10101 !
1R
00
#440000
b10111 !
b10110 !
0R
1Q
10
0I
#460000
b10111 !
1R
00
#480000
b11111 !
b11011 !
b11001 !
b11000 !
0R
0Q
0P
1O
10
1E
#500000
b11001 !
1R
00
0E
#520000
b11011 !
b11010 !
0R
1Q
10
#540000
b11011 !
1R
00
#560000
b11111 !
b11101 !
b11100 !
0R
0Q
1P
10
1I
1E
#580000
b11101 !
1R
00
0I
1G
#600000
b11111 !
b11110 !
0R
1Q
10
1I
#620000
b11111 !
1R
00
0I
0G
0E
#640000
b111111 !
b101111 !
b100111 !
b100011 !
b100001 !
b100000 !
0R
0Q
0P
0O
0N
1M
10
1G
0?
#660000
b100001 !
1R
00
1I
0G
#680000
b100011 !
b100010 !
0R
1Q
10
0I
1?
08
#700000
b100011 !
1R
00
1@
1:
19
1D
1;
1#
1.
1'
1+
#720000
b100111 !
b100101 !
b100100 !
0R
0Q
1P
10
1I
0@
0:
09
0?
18
0D
0;
0#
0.
0'
0+
#740000
b100101 !
1R
00
#760000
b100111 !
b100110 !
0R
1Q
10
0I
#780000
b100111 !
1R
00
1:
#800000
b101111 !
b101011 !
b101001 !
b101000 !
0R
0Q
0P
1O
10
1E
0:
1<
0<
1/
0/
#820000
b101001 !
1R
00
0E
#840000
b101011 !
b101010 !
0R
1Q
10
1?
08
#860000
b101011 !
1R
00
1@
1:
1<
1#
1/
#880000
b101111 !
b101101 !
b101100 !
0R
0Q
1P
10
1I
1E
0@
0:
0?
18
0<
0#
0/
#900000
b101101 !
1R
00
0I
1G
#920000
b101111 !
b101110 !
0R
1Q
10
1I
#940000
b101111 !
1R
00
0I
0G
0E
1:
#960000
b111111 !
b110111 !
b110011 !
b110001 !
b110000 !
0R
0Q
0P
0O
1N
10
1G
0:
1D
1;
0D
0;
1'
1+
0'
0+
#980000
b110001 !
1R
00
1I
0G
