pipeline/ULA/simulation/qsim/ULA_32bits.msim.vcd
$comment
	File created using the following command:
		vcd file ULA_32bits.msim.vcd -direction
$end
$date
	Thu Jun 14 21:36:16 2018
$end
$version
	ModelSim Version 10.1d
$end
$timescale
	1ps
$end
$scope module ULA_32bits_vlg_vec_tst $end
$var reg 32 ! A [31:0] $end
$var reg 1 " A_inv $end
$var reg 32 # B [31:0] $end
$var reg 1 $ B_inv $end
$var reg 3 % Op [2:0] $end
$var wire 1 & Equal $end
$var wire 1 ' Output [31] $end
$var wire 1 ( Output [30] $end
$var wire 1 ) Output [29] $end
$var wire 1 * Output [28] $end
$var wire 1 + Output [27] $end
$var wire 1 , Output [26] $end
$var wire 1 - Output [25] $end
$var wire 1 . Output [24] $end
$var wire 1 / Output [23] $end
$var wire 1 0 Output [22] $end
$var wire 1 1 Output [21] $end
$var wire 1 2 Output [20] $end
$var wire 1 3 Output [19] $end
$var wire 1 4 Output [18] $end
$var wire 1 5 Output [17] $end
$var wire 1 6 Output [16] $end
$var wire 1 7 Output [15] $end
$var wire 1 8 Output [14] $end
$var wire 1 9 Output [13] $end
$var wire 1 : Output [12] $end
$var wire 1 ; Output [11] $end
$var wire 1 < Output [10] $end
$var wire 1 = Output [9] $end
$var wire 1 > Output [8] $end
$var wire 1 ? Output [7] $end
$var wire 1 @ Output [6] $end
$var wire 1 A Output [5] $end
$var wire 1 B Output [4] $end
$var wire 1 C Output [3] $end
$var wire 1 D Output [2] $end
$var wire 1 E Output [1] $end
$var wire 1 F Output [0] $end
$var wire 1 G Overflow $end
$var wire 1 H sampler $end
$scope module i1 $end
$var wire 1 I gnd $end
$var wire 1 J vcc $end
$var wire 1 K unknown $end
$var tri1 1 L devclrn $end
$var tri1 1 M devpor $end
$var tri1 1 N devoe $end
$var wire 1 O inst27|inst5~0_combout $end
$var wire 1 P inst26|inst5~0_combout $end
$var wire 1 Q inst26|inst2|LPM_MUX_component|auto_generated|muxlut_result0w~0_combout $end
$var wire 1 R inst25|inst5~0_combout $end
$var wire 1 S inst25|inst2|LPM_MUX_component|auto_generated|muxlut_result0w~0_combout $end
$var wire 1 T inst24|inst5~0_combout $end
$var wire 1 U inst24|inst2|LPM_MUX_component|auto_generated|muxlut_result0w~0_combout $end
$var wire 1 V inst29|inst2|LPM_MUX_component|auto_generated|muxlut_result0w~1_combout $end
$var wire 1 W inst23|inst5~0_combout $end
$var wire 1 X inst22|inst5~0_combout $end
$var wire 1 Y inst22|inst2|LPM_MUX_component|auto_generated|muxlut_result0w~0_combout $end
$var wire 1 Z inst21|inst5~0_combout $end
$var wire 1 [ inst21|inst2|LPM_MUX_component|auto_generated|muxlut_result0w~0_combout $end
$var wire 1 \ inst20|inst5~0_combout $end
$var wire 1 ] inst20|inst2|LPM_MUX_component|auto_generated|muxlut_result0w~0_combout $end
$var wire 1 ^ inst19|inst5~0_combout $end
$var wire 1 _ inst18|inst5~0_combout $end
$var wire 1 ` inst18|inst2|LPM_MUX_component|auto_generated|muxlut_result0w~0_combout $end
$var wire 1 a inst17|inst5~0_combout $end
$var wire 1 b inst17|inst2|LPM_MUX_component|auto_generated|muxlut_result0w~0_combout $end
$var wire 1 c inst16|inst5~0_combout $end
$var wire 1 d inst16|inst2|LPM_MUX_component|auto_generated|muxlut_result0w~0_combout $end
$var wire 1 e inst15|inst5~0_combout $end
$var wire 1 f inst14|inst5~0_combout $end
$var wire 1 g inst13|inst5~0_combout $end
$var wire 1 h inst13|inst2|LPM_MUX_component|auto_generated|muxlut_result0w~0_combout $end
$var wire 1 i inst12|inst5~0_combout $end
$var wire 1 j inst12|inst2|LPM_MUX_component|auto_generated|muxlut_result0w~0_combout $end
$var wire 1 k inst11|inst5~0_combout $end
$var wire 1 l inst10|inst5~0_combout $end
$var wire 1 m inst10|inst2|LPM_MUX_component|auto_generated|muxlut_result0w~0_combout $end
$var wire 1 n inst9|inst5~0_combout $end
$var wire 1 o inst9|inst2|LPM_MUX_component|auto_generated|muxlut_result0w~0_combout $end
$var wire 1 p inst8|inst5~0_combout $end
$var wire 1 q inst8|inst2|LPM_MUX_component|auto_generated|muxlut_result0w~0_combout $end
$var wire 1 r inst7|inst5~0_combout $end
$var wire 1 s inst6|inst5~0_combout $end
$var wire 1 t inst6|inst2|LPM_MUX_component|auto_generated|muxlut_result0w~0_combout $end
$var wire 1 u inst5|inst5~0_combout $end
$var wire 1 v inst5|inst2|LPM_MUX_component|auto_generated|muxlut_result0w~0_combout $end
$var wire 1 w inst4|inst5~0_combout $end
$var wire 1 x inst4|inst2|LPM_MUX_component|auto_generated|muxlut_result0w~0_combout $end
$var wire 1 y inst3|inst5~0_combout $end
$var wire 1 z inst2|inst5~0_combout $end
$var wire 1 { inst2|inst2|LPM_MUX_component|auto_generated|muxlut_result0w~0_combout $end
$var wire 1 | inst1|inst5~0_combout $end
$var wire 1 } inst1|inst2|LPM_MUX_component|auto_generated|muxlut_result0w~0_combout $end
$var wire 1 ~ inst30|inst2|LPM_MUX_component|auto_generated|muxlut_result0w~4_combout $end
$var wire 1 !! inst28|inst2|LPM_MUX_component|auto_generated|muxlut_result0w~4_combout $end
$var wire 1 "! inst66~0_combout $end
$var wire 1 #! A_inv~combout $end
$var wire 1 $! inst|inst6|inst2~0_combout $end
$var wire 1 %! B_inv~combout $end
$var wire 1 &! inst1|inst|LPM_MUX_component|auto_generated|result_node[0]~0_combout $end
$var wire 1 '! inst1|inst6|inst2~0_combout $end
$var wire 1 (! inst2|inst|LPM_MUX_component|auto_generated|result_node[0]~0_combout $end
$var wire 1 )! inst2|inst6|inst2~0_combout $end
$var wire 1 *! inst3|inst|LPM_MUX_component|auto_generated|result_node[0]~0_combout $end
$var wire 1 +! inst3|inst6|inst2~0_combout $end
$var wire 1 ,! inst4|inst|LPM_MUX_component|auto_generated|result_node[0]~0_combout $end
$var wire 1 -! inst4|inst6|inst2~0_combout $end
$var wire 1 .! inst5|inst|LPM_MUX_component|auto_generated|result_node[0]~0_combout $end
$var wire 1 /! inst5|inst6|inst2~0_combout $end
$var wire 1 0! inst6|inst|LPM_MUX_component|auto_generated|result_node[0]~0_combout $end
$var wire 1 1! inst6|inst6|inst2~0_combout $end
$var wire 1 2! inst7|inst|LPM_MUX_component|auto_generated|result_node[0]~0_combout $end
$var wire 1 3! inst7|inst6|inst2~0_combout $end
$var wire 1 4! inst8|inst|LPM_MUX_component|auto_generated|result_node[0]~0_combout $end
$var wire 1 5! inst8|inst6|inst2~0_combout $end
$var wire 1 6! inst9|inst|LPM_MUX_component|auto_generated|result_node[0]~0_combout $end
$var wire 1 7! inst9|inst6|inst2~0_combout $end
$var wire 1 8! inst10|inst|LPM_MUX_component|auto_generated|result_node[0]~0_combout $end
$var wire 1 9! inst10|inst6|inst2~0_combout $end
$var wire 1 :! inst11|inst|LPM_MUX_component|auto_generated|result_node[0]~0_combout $end
$var wire 1 ;! inst11|inst6|inst2~0_combout $end
$var wire 1 <! inst12|inst|LPM_MUX_component|auto_generated|result_node[0]~0_combout $end
$var wire 1 =! inst12|inst6|inst2~0_combout $end
$var wire 1 >! inst13|inst|LPM_MUX_component|auto_generated|result_node[0]~0_combout $end
$var wire 1 ?! inst13|inst6|inst2~0_combout $end
$var wire 1 @! inst14|inst|LPM_MUX_component|auto_generated|result_node[0]~0_combout $end
$var wire 1 A! inst14|inst6|inst2~0_combout $end
$var wire 1 B! inst15|inst|LPM_MUX_component|auto_generated|result_node[0]~0_combout $end
$var wire 1 C! inst15|inst6|inst2~0_combout $end
$var wire 1 D! inst16|inst|LPM_MUX_component|auto_generated|result_node[0]~0_combout $end
$var wire 1 E! inst16|inst6|inst2~0_combout $end
$var wire 1 F! inst17|inst|LPM_MUX_component|auto_generated|result_node[0]~0_combout $end
$var wire 1 G! inst17|inst6|inst2~0_combout $end
$var wire 1 H! inst18|inst|LPM_MUX_component|auto_generated|result_node[0]~0_combout $end
$var wire 1 I! inst18|inst6|inst2~0_combout $end
$var wire 1 J! inst19|inst|LPM_MUX_component|auto_generated|result_node[0]~0_combout $end
$var wire 1 K! inst19|inst6|inst2~0_combout $end
$var wire 1 L! inst20|inst|LPM_MUX_component|auto_generated|result_node[0]~0_combout $end
$var wire 1 M! inst20|inst6|inst2~0_combout $end
$var wire 1 N! inst21|inst|LPM_MUX_component|auto_generated|result_node[0]~0_combout $end
$var wire 1 O! inst21|inst6|inst2~0_combout $end
$var wire 1 P! inst22|inst|LPM_MUX_component|auto_generated|result_node[0]~0_combout $end
$var wire 1 Q! inst22|inst6|inst2~0_combout $end
$var wire 1 R! inst23|inst|LPM_MUX_component|auto_generated|result_node[0]~0_combout $end
$var wire 1 S! inst23|inst6|inst2~0_combout $end
$var wire 1 T! inst24|inst|LPM_MUX_component|auto_generated|result_node[0]~0_combout $end
$var wire 1 U! inst24|inst6|inst2~0_combout $end
$var wire 1 V! inst25|inst|LPM_MUX_component|auto_generated|result_node[0]~0_combout $end
$var wire 1 W! inst25|inst6|inst2~0_combout $end
$var wire 1 X! inst26|inst|LPM_MUX_component|auto_generated|result_node[0]~0_combout $end
$var wire 1 Y! inst26|inst6|inst2~0_combout $end
$var wire 1 Z! inst27|inst|LPM_MUX_component|auto_generated|result_node[0]~0_combout $end
$var wire 1 [! inst27|inst6|inst2~0_combout $end
$var wire 1 \! inst28|inst|LPM_MUX_component|auto_generated|result_node[0]~0_combout $end
$var wire 1 ]! inst28|inst6|inst2~0_combout $end
$var wire 1 ^! inst29|inst|LPM_MUX_component|auto_generated|result_node[0]~0_combout $end
$var wire 1 _! inst29|inst6|inst2~0_combout $end
$var wire 1 `! inst30|inst|LPM_MUX_component|auto_generated|result_node[0]~0_combout $end
$var wire 1 a! inst30|inst6|inst2~0_combout $end
$var wire 1 b! inst31|inst|LPM_MUX_component|auto_generated|result_node[0]~0_combout $end
$var wire 1 c! inst31|inst6|inst2~0_combout $end
$var wire 1 d! inst66~combout $end
$var wire 1 e! inst31|inst1|LPM_MUX_component|auto_generated|result_node[0]~0_combout $end
$var wire 1 f! inst31|inst2|LPM_MUX_component|auto_generated|w_mux_outputs27w[0]~0_combout $end
$var wire 1 g! inst31|inst5~0_combout $end
$var wire 1 h! inst31|inst2|LPM_MUX_component|auto_generated|muxlut_result0w~1_combout $end
$var wire 1 i! inst29|inst1|LPM_MUX_component|auto_generated|result_node[0]~0_combout $end
$var wire 1 j! inst29|inst2|LPM_MUX_component|auto_generated|w_mux_outputs27w[0]~0_combout $end
$var wire 1 k! inst29|inst5~0_combout $end
$var wire 1 l! inst29|inst2|LPM_MUX_component|auto_generated|muxlut_result0w~0_combout $end
$var wire 1 m! inst28|inst2|LPM_MUX_component|auto_generated|muxlut_result0w~12_combout $end
$var wire 1 n! inst28|inst2|LPM_MUX_component|auto_generated|muxlut_result0w~9_combout $end
$var wire 1 o! inst28|inst5~0_combout $end
$var wire 1 p! inst31|inst2|LPM_MUX_component|auto_generated|muxlut_result0w~0_combout $end
$var wire 1 q! inst28|inst2|LPM_MUX_component|auto_generated|muxlut_result0w~10_combout $end
$var wire 1 r! inst28|inst2|LPM_MUX_component|auto_generated|muxlut_result0w~11_combout $end
$var wire 1 s! inst26|inst1|LPM_MUX_component|auto_generated|result_node[0]~0_combout $end
$var wire 1 t! inst26|inst2|LPM_MUX_component|auto_generated|w_mux_outputs27w[0]~0_combout $end
$var wire 1 u! inst26|inst2|LPM_MUX_component|auto_generated|muxlut_result0w~1_combout $end
$var wire 1 v! inst25|inst1|LPM_MUX_component|auto_generated|result_node[0]~0_combout $end
$var wire 1 w! inst25|inst2|LPM_MUX_component|auto_generated|w_mux_outputs27w[0]~0_combout $end
$var wire 1 x! inst25|inst2|LPM_MUX_component|auto_generated|muxlut_result0w~1_combout $end
$var wire 1 y! inst24|inst1|LPM_MUX_component|auto_generated|result_node[0]~0_combout $end
$var wire 1 z! inst24|inst2|LPM_MUX_component|auto_generated|w_mux_outputs27w[0]~0_combout $end
$var wire 1 {! inst24|inst2|LPM_MUX_component|auto_generated|muxlut_result0w~1_combout $end
$var wire 1 |! inst64|inst4~0_combout $end
$var wire 1 }! inst29|inst2|LPM_MUX_component|auto_generated|muxlut_result0w~2_combout $end
$var wire 1 ~! inst22|inst1|LPM_MUX_component|auto_generated|result_node[0]~0_combout $end
$var wire 1 !" inst22|inst2|LPM_MUX_component|auto_generated|w_mux_outputs27w[0]~0_combout $end
$var wire 1 "" inst22|inst2|LPM_MUX_component|auto_generated|muxlut_result0w~1_combout $end
$var wire 1 #" inst21|inst1|LPM_MUX_component|auto_generated|result_node[0]~0_combout $end
$var wire 1 $" inst21|inst2|LPM_MUX_component|auto_generated|w_mux_outputs27w[0]~0_combout $end
$var wire 1 %" inst21|inst2|LPM_MUX_component|auto_generated|muxlut_result0w~1_combout $end
$var wire 1 &" inst20|inst1|LPM_MUX_component|auto_generated|result_node[0]~0_combout $end
$var wire 1 '" inst20|inst2|LPM_MUX_component|auto_generated|w_mux_outputs27w[0]~0_combout $end
$var wire 1 (" inst20|inst2|LPM_MUX_component|auto_generated|muxlut_result0w~1_combout $end
$var wire 1 )" inst64|inst4~1_combout $end
$var wire 1 *" inst18|inst1|LPM_MUX_component|auto_generated|result_node[0]~0_combout $end
$var wire 1 +" inst18|inst2|LPM_MUX_component|auto_generated|w_mux_outputs27w[0]~0_combout $end
$var wire 1 ," inst18|inst2|LPM_MUX_component|auto_generated|muxlut_result0w~1_combout $end
$var wire 1 -" inst17|inst1|LPM_MUX_component|auto_generated|result_node[0]~0_combout $end
$var wire 1 ." inst17|inst2|LPM_MUX_component|auto_generated|w_mux_outputs27w[0]~0_combout $end
$var wire 1 /" inst17|inst2|LPM_MUX_component|auto_generated|muxlut_result0w~1_combout $end
$var wire 1 0" inst16|inst1|LPM_MUX_component|auto_generated|result_node[0]~0_combout $end
$var wire 1 1" inst16|inst2|LPM_MUX_component|auto_generated|w_mux_outputs27w[0]~0_combout $end
$var wire 1 2" inst16|inst2|LPM_MUX_component|auto_generated|muxlut_result0w~1_combout $end
$var wire 1 3" inst64|inst4~2_combout $end
$var wire 1 4" inst14|inst2|LPM_MUX_component|auto_generated|muxlut_result0w~1_combout $end
$var wire 1 5" inst14|inst2|LPM_MUX_component|auto_generated|muxlut_result0w~0_combout $end
$var wire 1 6" inst14|inst2|LPM_MUX_component|auto_generated|muxlut_result0w~2_combout $end
$var wire 1 7" inst13|inst1|LPM_MUX_component|auto_generated|result_node[0]~0_combout $end
$var wire 1 8" inst13|inst2|LPM_MUX_component|auto_generated|w_mux_outputs27w[0]~0_combout $end
$var wire 1 9" inst13|inst2|LPM_MUX_component|auto_generated|muxlut_result0w~1_combout $end
$var wire 1 :" inst12|inst1|LPM_MUX_component|auto_generated|result_node[0]~0_combout $end
$var wire 1 ;" inst12|inst2|LPM_MUX_component|auto_generated|w_mux_outputs27w[0]~0_combout $end
$var wire 1 <" inst12|inst2|LPM_MUX_component|auto_generated|muxlut_result0w~1_combout $end
$var wire 1 =" inst64|inst4~3_combout $end
$var wire 1 >" inst64|inst4~4_combout $end
$var wire 1 ?" inst64|inst4~5_combout $end
$var wire 1 @" inst64|inst4~6_combout $end
$var wire 1 A" inst64|inst4~7_combout $end
$var wire 1 B" inst10|inst1|LPM_MUX_component|auto_generated|result_node[0]~0_combout $end
$var wire 1 C" inst10|inst2|LPM_MUX_component|auto_generated|w_mux_outputs27w[0]~0_combout $end
$var wire 1 D" inst10|inst2|LPM_MUX_component|auto_generated|muxlut_result0w~1_combout $end
$var wire 1 E" inst9|inst1|LPM_MUX_component|auto_generated|result_node[0]~0_combout $end
$var wire 1 F" inst9|inst2|LPM_MUX_component|auto_generated|w_mux_outputs27w[0]~0_combout $end
$var wire 1 G" inst9|inst2|LPM_MUX_component|auto_generated|muxlut_result0w~1_combout $end
$var wire 1 H" inst8|inst1|LPM_MUX_component|auto_generated|result_node[0]~0_combout $end
$var wire 1 I" inst8|inst2|LPM_MUX_component|auto_generated|w_mux_outputs27w[0]~0_combout $end
$var wire 1 J" inst8|inst2|LPM_MUX_component|auto_generated|muxlut_result0w~1_combout $end
$var wire 1 K" inst64|inst4~8_combout $end
$var wire 1 L" inst6|inst1|LPM_MUX_component|auto_generated|result_node[0]~0_combout $end
$var wire 1 M" inst6|inst2|LPM_MUX_component|auto_generated|w_mux_outputs27w[0]~0_combout $end
$var wire 1 N" inst6|inst2|LPM_MUX_component|auto_generated|muxlut_result0w~1_combout $end
$var wire 1 O" inst5|inst1|LPM_MUX_component|auto_generated|result_node[0]~0_combout $end
$var wire 1 P" inst5|inst2|LPM_MUX_component|auto_generated|w_mux_outputs27w[0]~0_combout $end
$var wire 1 Q" inst5|inst2|LPM_MUX_component|auto_generated|muxlut_result0w~1_combout $end
$var wire 1 R" inst4|inst1|LPM_MUX_component|auto_generated|result_node[0]~0_combout $end
$var wire 1 S" inst4|inst2|LPM_MUX_component|auto_generated|w_mux_outputs27w[0]~0_combout $end
$var wire 1 T" inst4|inst2|LPM_MUX_component|auto_generated|muxlut_result0w~1_combout $end
$var wire 1 U" inst64|inst4~9_combout $end
$var wire 1 V" inst2|inst1|LPM_MUX_component|auto_generated|result_node[0]~0_combout $end
$var wire 1 W" inst2|inst2|LPM_MUX_component|auto_generated|w_mux_outputs27w[0]~0_combout $end
$var wire 1 X" inst2|inst2|LPM_MUX_component|auto_generated|muxlut_result0w~1_combout $end
$var wire 1 Y" inst|inst2|LPM_MUX_component|auto_generated|muxlut_result0w~0_combout $end
$var wire 1 Z" inst|inst2|LPM_MUX_component|auto_generated|muxlut_result0w~1_combout $end
$var wire 1 [" inst|inst2|LPM_MUX_component|auto_generated|muxlut_result0w~2_combout $end
$var wire 1 \" inst|inst2|LPM_MUX_component|auto_generated|muxlut_result0w~3_combout $end
$var wire 1 ]" inst|inst2|LPM_MUX_component|auto_generated|muxlut_result0w~4_combout $end
$var wire 1 ^" inst1|inst1|LPM_MUX_component|auto_generated|result_node[0]~0_combout $end
$var wire 1 _" inst1|inst2|LPM_MUX_component|auto_generated|w_mux_outputs27w[0]~0_combout $end
$var wire 1 `" inst1|inst2|LPM_MUX_component|auto_generated|muxlut_result0w~1_combout $end
$var wire 1 a" inst64|inst4~10_combout $end
$var wire 1 b" inst64|inst4~combout $end
$var wire 1 c" inst31|inst2|LPM_MUX_component|auto_generated|muxlut_result0w~2_combout $end
$var wire 1 d" inst31|inst2|LPM_MUX_component|auto_generated|muxlut_result0w~3_combout $end
$var wire 1 e" inst30|inst2|LPM_MUX_component|auto_generated|muxlut_result0w~12_combout $end
$var wire 1 f" inst30|inst2|LPM_MUX_component|auto_generated|muxlut_result0w~9_combout $end
$var wire 1 g" inst30|inst5~0_combout $end
$var wire 1 h" inst30|inst2|LPM_MUX_component|auto_generated|muxlut_result0w~10_combout $end
$var wire 1 i" inst30|inst2|LPM_MUX_component|auto_generated|muxlut_result0w~11_combout $end
$var wire 1 j" inst29|inst2|LPM_MUX_component|auto_generated|muxlut_result0w~3_combout $end
$var wire 1 k" inst27|inst2|LPM_MUX_component|auto_generated|muxlut_result0w~0_combout $end
$var wire 1 l" inst27|inst1|LPM_MUX_component|auto_generated|result_node[0]~0_combout $end
$var wire 1 m" inst27|inst2|LPM_MUX_component|auto_generated|w_mux_outputs27w[0]~0_combout $end
$var wire 1 n" inst27|inst2|LPM_MUX_component|auto_generated|muxlut_result0w~1_combout $end
$var wire 1 o" inst23|inst2|LPM_MUX_component|auto_generated|muxlut_result0w~0_combout $end
$var wire 1 p" inst23|inst1|LPM_MUX_component|auto_generated|result_node[0]~0_combout $end
$var wire 1 q" inst23|inst2|LPM_MUX_component|auto_generated|w_mux_outputs27w[0]~0_combout $end
$var wire 1 r" inst23|inst2|LPM_MUX_component|auto_generated|muxlut_result0w~1_combout $end
$var wire 1 s" inst19|inst2|LPM_MUX_component|auto_generated|muxlut_result0w~0_combout $end
$var wire 1 t" inst19|inst1|LPM_MUX_component|auto_generated|result_node[0]~0_combout $end
$var wire 1 u" inst19|inst2|LPM_MUX_component|auto_generated|w_mux_outputs27w[0]~0_combout $end
$var wire 1 v" inst19|inst2|LPM_MUX_component|auto_generated|muxlut_result0w~1_combout $end
$var wire 1 w" inst15|inst2|LPM_MUX_component|auto_generated|muxlut_result0w~0_combout $end
$var wire 1 x" inst15|inst1|LPM_MUX_component|auto_generated|result_node[0]~0_combout $end
$var wire 1 y" inst15|inst2|LPM_MUX_component|auto_generated|w_mux_outputs27w[0]~0_combout $end
$var wire 1 z" inst15|inst2|LPM_MUX_component|auto_generated|muxlut_result0w~1_combout $end
$var wire 1 {" inst11|inst2|LPM_MUX_component|auto_generated|muxlut_result0w~1_combout $end
$var wire 1 |" inst11|inst2|LPM_MUX_component|auto_generated|muxlut_result0w~0_combout $end
$var wire 1 }" inst11|inst2|LPM_MUX_component|auto_generated|muxlut_result0w~2_combout $end
$var wire 1 ~" inst7|inst2|LPM_MUX_component|auto_generated|muxlut_result0w~0_combout $end
$var wire 1 !# inst7|inst1|LPM_MUX_component|auto_generated|result_node[0]~0_combout $end
$var wire 1 "# inst7|inst2|LPM_MUX_component|auto_generated|w_mux_outputs27w[0]~0_combout $end
$var wire 1 ## inst7|inst2|LPM_MUX_component|auto_generated|muxlut_result0w~1_combout $end
$var wire 1 $# inst3|inst2|LPM_MUX_component|auto_generated|muxlut_result0w~0_combout $end
$var wire 1 %# inst3|inst1|LPM_MUX_component|auto_generated|result_node[0]~0_combout $end
$var wire 1 &# inst3|inst2|LPM_MUX_component|auto_generated|w_mux_outputs27w[0]~0_combout $end
$var wire 1 '# inst3|inst2|LPM_MUX_component|auto_generated|muxlut_result0w~1_combout $end
$var wire 1 (# Op~combout [2] $end
$var wire 1 )# Op~combout [1] $end
$var wire 1 *# Op~combout [0] $end
$var wire 1 +# B~combout [31] $end
$var wire 1 ,# B~combout [30] $end
$var wire 1 -# B~combout [29] $end
$var wire 1 .# B~combout [28] $end
$var wire 1 /# B~combout [27] $end
$var wire 1 0# B~combout [26] $end
$var wire 1 1# B~combout [25] $end
$var wire 1 2# B~combout [24] $end
$var wire 1 3# B~combout [23] $end
$var wire 1 4# B~combout [22] $end
$var wire 1 5# B~combout [21] $end
$var wire 1 6# B~combout [20] $end
$var wire 1 7# B~combout [19] $end
$var wire 1 8# B~combout [18] $end
$var wire 1 9# B~combout [17] $end
$var wire 1 :# B~combout [16] $end
$var wire 1 ;# B~combout [15] $end
$var wire 1 <# B~combout [14] $end
$var wire 1 =# B~combout [13] $end
$var wire 1 ># B~combout [12] $end
$var wire 1 ?# B~combout [11] $end
$var wire 1 @# B~combout [10] $end
$var wire 1 A# B~combout [9] $end
$var wire 1 B# B~combout [8] $end
$var wire 1 C# B~combout [7] $end
$var wire 1 D# B~combout [6] $end
$var wire 1 E# B~combout [5] $end
$var wire 1 F# B~combout [4] $end
$var wire 1 G# B~combout [3] $end
$var wire 1 H# B~combout [2] $end
$var wire 1 I# B~combout [1] $end
$var wire 1 J# B~combout [0] $end
$var wire 1 K# A~combout [31] $end
$var wire 1 L# A~combout [30] $end
$var wire 1 M# A~combout [29] $end
$var wire 1 N# A~combout [28] $end
$var wire 1 O# A~combout [27] $end
$var wire 1 P# A~combout [26] $end
$var wire 1 Q# A~combout [25] $end
$var wire 1 R# A~combout [24] $end
$var wire 1 S# A~combout [23] $end
$var wire 1 T# A~combout [22] $end
$var wire 1 U# A~combout [21] $end
$var wire 1 V# A~combout [20] $end
$var wire 1 W# A~combout [19] $end
$var wire 1 X# A~combout [18] $end
$var wire 1 Y# A~combout [17] $end
$var wire 1 Z# A~combout [16] $end
$var wire 1 [# A~combout [15] $end
$var wire 1 \# A~combout [14] $end
$var wire 1 ]# A~combout [13] $end
$var wire 1 ^# A~combout [12] $end
$var wire 1 _# A~combout [11] $end
$var wire 1 `# A~combout [10] $end
$var wire 1 a# A~combout [9] $end
$var wire 1 b# A~combout [8] $end
$var wire 1 c# A~combout [7] $end
$var wire 1 d# A~combout [6] $end
$var wire 1 e# A~combout [5] $end
$var wire 1 f# A~combout [4] $end
$var wire 1 g# A~combout [3] $end
$var wire 1 h# A~combout [2] $end
$var wire 1 i# A~combout [1] $end
$var wire 1 j# A~combout [0] $end
$upscope $end
$upscope $end
$enddefinitions $end
#0
$dumpvars
b0 !
0"
b0 #
0$
b0 %
1&
0F
0E
0D
0C
0B
0A
0@
0?
0>
0=
0<
0;
0:
09
08
07
06
05
04
03
02
01
00
0/
0.
0-
0,
0+
0*
0)
0(
0'
0G
xH
0I
1J
xK
1L
1M
1N
0O
0P
1Q
0R
1S
0T
1U
0V
0W
0X
1Y
0Z
1[
0\
1]
0^
0_
1`
0a
1b
0c
1d
0e
0f
0g
1h
0i
1j
0k
0l
1m
0n
1o
0p
1q
0r
0s
1t
0u
1v
0w
1x
0y
0z
1{
0|
1}
0~
0!!
0"!
0#!
0$!
0%!
0&!
0'!
0(!
0)!
0*!
0+!
0,!
0-!
0.!
0/!
00!
01!
02!
03!
04!
05!
06!
07!
08!
09!
0:!
0;!
0<!
0=!
0>!
0?!
0@!
0A!
0B!
0C!
0D!
0E!
0F!
0G!
0H!
0I!
0J!
0K!
0L!
0M!
0N!
0O!
0P!
0Q!
0R!
0S!
0T!
0U!
0V!
0W!
0X!
0Y!
0Z!
0[!
0\!
0]!
0^!
0_!
0`!
0a!
0b!
0c!
0d!
0e!
0f!
0g!
0h!
0i!
0j!
0k!
0l!
0m!
0n!
0o!
1p!
1q!
0r!
0s!
0t!
0u!
0v!
0w!
0x!
0y!
0z!
0{!
0|!
0}!
0~!
0!"
0""
0#"
0$"
0%"
0&"
0'"
0("
0)"
0*"
0+"
0,"
0-"
0."
0/"
00"
01"
02"
03"
04"
15"
06"
07"
08"
09"
0:"
0;"
0<"
0="
0>"
0?"
0@"
0A"
0B"
0C"
0D"
0E"
0F"
0G"
0H"
0I"
0J"
0K"
0L"
0M"
0N"
0O"
0P"
0Q"
0R"
0S"
0T"
0U"
0V"
0W"
0X"
0Y"
0Z"
0["
0\"
0]"
0^"
0_"
0`"
0a"
0b"
0c"
0d"
0e"
0f"
0g"
1h"
0i"
0j"
1k"
0l"
0m"
0n"
1o"
0p"
0q"
0r"
1s"
0t"
0u"
0v"
1w"
0x"
0y"
0z"
0{"
1|"
0}"
1~"
0!#
0"#
0##
1$#
0%#
0&#
0'#
0*#
0)#
0(#
0J#
0I#
0H#
0G#
0F#
0E#
0D#
0C#
0B#
0A#
0@#
0?#
0>#
0=#
0<#
0;#
0:#
09#
08#
07#
06#
05#
04#
03#
02#
01#
00#
0/#
0.#
0-#
0,#
0+#
0j#
0i#
0h#
0g#
0f#
0e#
0d#
0c#
0b#
0a#
0`#
0_#
0^#
0]#
0\#
0[#
0Z#
0Y#
0X#
0W#
0V#
0U#
0T#
0S#
0R#
0Q#
0P#
0O#
0N#
0M#
0L#
0K#
$end
#50000
b100 !
b101 !
b1 #
1J#
1j#
1h#
0H
1["
1$!
1Z"
1V"
1z
1\"
0["
1]"
1a"
1F
1b"
0&
#100000
b1101 !
b1111 !
b11 #
b1011 !
b1010 !
b10 #
0J#
1I#
0j#
1i#
0h#
1g#
1H
0\"
1["
0$!
1&!
0Z"
1^"
1'!
0V"
0z
1%#
1y
0]"
1_"
0["
0a"
1`"
0F
0b"
1a"
1E
1b"
1&
0&
#150000
b1110 !
b1111 !
b11 #
1J#
1j#
1h#
0H
1["
1$!
1Z"
1V"
1)!
1z
1\"
0["
1+!
1]"
1F
#200000
b11111 !
b111 #
b10111 !
b10101 !
b101 #
b10100 !
b100 #
0J#
0I#
1H#
0j#
0i#
0g#
1f#
1H
0\"
1["
0$!
0&!
1(!
0z
0Z"
0^"
0%#
0+!
0y
1R"
1-!
1w
0]"
0'!
0_"
1W"
0["
0-!
0`"
1X"
0F
0E
1D
#250000
b10000 !
b11000 !
b11001 !
b101 #
1J#
1j#
0h#
1g#
0H
1["
1$!
1Z"
0V"
0)!
1z
1%#
1+!
1y
1\"
0["
0W"
0+!
1-!
1]"
0X"
0-!
1F
0D
#300000
b11011 !
b111 #
b11111 !
b11110 !
b110 #
0J#
1I#
0j#
1i#
1h#
1H
0\"
1["
0$!
1&!
0Z"
1^"
1'!
1V"
1)!
0z
0]"
1_"
0["
1W"
1+!
0a"
1`"
1X"
1-!
0F
0b"
1a"
1E
1D
1b"
1&
0&
#350000
b111110 !
b101110 !
b100110 !
b100010 !
b100011 !
b111 #
1J#
1j#
0h#
0g#
0f#
1e#
0H
1["
1$!
1Z"
0V"
1z
0%#
0+!
0y
0R"
0-!
0w
1O"
1/!
1u
1\"
0["
0W"
0/!
1]"
0X"
1F
0D
#400000
b1111 #
b1011 #
b100001 !
b1001 #
b101001 !
b101000 !
b1000 #
0j#
0i#
1g#
0J#
0I#
0H#
1G#
1H
0Z"
0$!
0^"
1%#
1+!
0\"
1["
0&!
0(!
0z
1*!
0["
0'!
0_"
1&#
0]"
0)!
0`"
1'#
0F
0E
1C
#450000
b101100 !
b101101 !
b1001 #
1J#
1j#
1h#
0H
1["
1$!
1Z"
1V"
1z
1\"
0["
1]"
1F
#500000
b111101 !
b111111 !
b1011 #
b110111 !
b110011 !
b110010 !
b1010 #
0J#
1I#
0j#
1i#
0h#
0g#
1f#
1H
0\"
1["
0$!
1&!
0Z"
1^"
1'!
0V"
0z
0%#
0+!
1y
1R"
1-!
1w
0]"
1_"
0["
0&#
0-!
1/!
1`"
0'#
0/!
0F
1E
0C
#550000
b110110 !
b110111 !
b1011 #
1J#
1j#
1h#
0H
1["
1$!
1Z"
1V"
1)!
1z
1\"
0["
1+!
1]"
1-!
1/!
1F
